Case 1 :
Hole size :
908
728
411
200
214
980
992
395
608
189
780
588
294
Process Size :
325
327
522
441
Case 2 :
Hole size :
803
243
613
510
407
506
690
627
1017
833
818
895
567
Process Size :
501
477
323
324
Case 3 :
Hole size :
1038
787
401
1009
896
903
288
218
490
180
791
857
403
Process Size :
376
490
479
317
Case 4 :
Hole size :
843
939
443
259
955
429
516
232
238
983
1000
167
720
Process Size :
539
470
540
501
Case 5 :
Hole size :
641
537
806
802
1038
376
302
335
223
389
343
592
780
Process Size :
442
402
515
419
Case 6 :
Hole size :
475
620
458
330
280
708
851
911
553
960
358
332
914
Process Size :
328
482
483
381
Case 7 :
Hole size :
1030
877
203
875
728
566
736
1046
154
679
232
885
662
Process Size :
387
437
586
321
Case 8 :
Hole size :
273
806
912
890
715
385
791
378
512
492
1013
161
752
Process Size :
372
541
315
525
Case 9 :
Hole size :
572
734
966
548
580
968
732
700
664
155
184
218
795
Process Size :
359
517
526
334
Case 10 :
Hole size :
728
909
456
458
668
402
456
547
251
563
672
567
856
Process Size :
451
593
595
402
Case 11 :
Hole size :
848
331
291
207
912
965
342
404
271
347
859
284
382
Process Size :
399
430
437
584
Case 12 :
Hole size :
653
676
356
349
183
445
199
515
537
235
658
963
589
Process Size :
541
378
388
413
Case 13 :
Hole size :
542
917
236
597
1005
849
749
587
831
560
965
227
519
Process Size :
394
529
547
406
Case 14 :
Hole size :
609
272
481
406
669
541
169
415
351
593
171
225
933
Process Size :
578
371
545
541
Case 15 :
Hole size :
583
701
427
213
561
366
442
835
489
750
489
201
1044
Process Size :
453
368
381
490
Case 16 :
Hole size :
298
332
574
214
699
440
840
881
696
271
840
732
390
Process Size :
600
381
427
538
Case 17 :
Hole size :
676
782
582
534
167
853
635
508
200
972
640
986
160
Process Size :
555
425
408
577
Case 18 :
Hole size :
746
666
344
745
994
451
340
342
604
565
386
285
519
Process Size :
356
430
354
453
Case 19 :
Hole size :
816
972
633
940
802
744
195
1005
750
671
586
877
787
Process Size :
447
320
331
540
Case 20 :
Hole size :
890
210
910
912
781
385
494
439
988
823
566
707
469
Process Size :
466
370
361
452
Case 21 :
Hole size :
1002
960
781
904
486
1018
452
150
1028
1020
904
257
923
Process Size :
417
425
514
555
Case 22 :
Hole size :
956
293
371
326
526
1019
1006
674
961
583
578
678
448
Process Size :
366
473
548
459
Case 23 :
Hole size :
461
327
467
465
623
703
833
359
1000
589
1010
903
662
Process Size :
357
329
504
590
Case 24 :
Hole size :
855
291
659
548
566
353
342
592
826
854
522
976
556
Process Size :
330
570
336
425
Case 25 :
Hole size :
585
789
690
804
281
852
930
715
745
929
220
406
1021
Process Size :
509
412
345
345
Case 26 :
Hole size :
190
210
779
248
478
242
192
238
711
761
958
361
275
Process Size :
378
441
327
332
Case 27 :
Hole size :
419
453
294
386
886
356
220
1047
308
721
298
280
721
Process Size :
440
303
335
503
Case 28 :
Hole size :
339
666
200
1028
875
774
358
293
876
459
342
284
1042
Process Size :
431
400
566
566
Case 29 :
Hole size :
300
279
848
209
972
944
1041
194
320
749
505
609
527
Process Size :
364
596
352
352
Case 30 :
Hole size :
473
587
673
487
440
188
562
557
890
474
992
724
768
Process Size :
545
329
555
563
Case 31 :
Hole size :
546
259
467
488
906
571
835
167
670
450
437
430
265
Process Size :
578
501
598
316
Case 32 :
Hole size :
1037
696
513
477
182
780
374
825
331
222
479
717
691
Process Size :
368
524
443
411
Case 33 :
Hole size :
584
312
1019
777
292
271
673
791
791
436
484
863
1003
Process Size :
534
344
381
452
Case 34 :
Hole size :
197
997
348
285
209
872
1013
572
788
359
310
648
465
Process Size :
406
403
536
557
Case 35 :
Hole size :
355
719
635
1031
867
322
654
681
766
1042
517
589
726
Process Size :
332
525
322
331
Case 36 :
Hole size :
842
843
946
387
227
480
614
722
962
830
493
283
214
Process Size :
412
361
441
460
Case 37 :
Hole size :
583
164
954
819
1016
917
779
555
285
584
279
824
406
Process Size :
431
458
312
497
Case 38 :
Hole size :
975
657
346
956
572
197
399
990
898
790
270
737
965
Process Size :
375
569
481
557
Case 39 :
Hole size :
233
974
970
853
935
958
984
596
970
489
729
753
317
Process Size :
368
445
385
439
Case 40 :
Hole size :
989
629
667
1039
206
163
425
1010
901
263
210
419
689
Process Size :
498
302
344
547
Case 41 :
Hole size :
988
629
616
881
621
287
942
649
762
569
695
899
483
Process Size :
561
493
410
588
Case 42 :
Hole size :
778
887
968
251
500
274
803
441
363
208
863
339
651
Process Size :
375
382
597
586
Case 43 :
Hole size :
698
1014
807
678
927
913
514
406
644
549
735
295
791
Process Size :
444
306
524
512
Case 44 :
Hole size :
172
969
831
1041
634
168
624
799
453
577
658
968
647
Process Size :
343
352
560
301
Case 45 :
Hole size :
578
297
729
552
734
685
632
313
181
585
264
554
654
Process Size :
436
419
426
404
Case 46 :
Hole size :
659
172
617
1041
935
755
180
464
1011
834
806
823
925
Process Size :
408
592
426
457
Case 47 :
Hole size :
681
714
174
665
877
510
327
866
647
343
928
858
701
Process Size :
354
561
411
493
Case 48 :
Hole size :
558
842
220
833
265
1016
388
670
441
927
417
984
689
Process Size :
440
536
383
535
Case 49 :
Hole size :
926
294
909
279
604
391
468
235
612
1044
859
958
560
Process Size :
312
500
497
503
Case 50 :
Hole size :
774
1023
751
347
980
716
613
959
458
522
331
705
883
Process Size :
351
426
347
465
Case 51 :
Hole size :
894
876
543
918
461
433
847
1033
1022
199
514
989
636
Process Size :
356
562
413
307
Case 52 :
Hole size :
180
481
214
637
874
401
354
298
430
966
385
774
970
Process Size :
405
351
584
591
Case 53 :
Hole size :
826
850
640
759
497
544
351
675
265
980
816
605
349
Process Size :
484
567
317
598
Case 54 :
Hole size :
236
979
865
454
526
691
461
167
349
510
258
471
253
Process Size :
571
340
457
563
Case 55 :
Hole size :
844
296
726
419
223
223
644
703
770
328
965
175
506
Process Size :
554
371
478
428
Case 56 :
Hole size :
554
383
934
962
155
272
924
560
732
807
376
834
924
Process Size :
322
436
487
392
Case 57 :
Hole size :
375
303
309
958
373
714
359
446
287
1026
751
843
806
Process Size :
460
456
505
440
Case 58 :
Hole size :
381
175
223
968
1032
298
1021
428
268
885
662
197
164
Process Size :
422
509
333
366
Case 59 :
Hole size :
297
632
863
472
349
1029
886
268
522
466
338
784
738
Process Size :
546
582
554
328
Case 60 :
Hole size :
318
305
490
569
396
441
1048
318
242
887
796
727
460
Process Size :
590
589
368
460
Case 61 :
Hole size :
1033
636
154
151
596
801
292
433
154
1041
943
787
689
Process Size :
522
364
381
356
Case 62 :
Hole size :
631
689
214
443
826
696
453
160
933
596
942
710
255
Process Size :
579
388
316
583
Case 63 :
Hole size :
901
244
585
910
972
829
422
327
941
456
323
557
363
Process Size :
569
522
554
382
Case 64 :
Hole size :
605
337
777
777
441
923
996
152
206
802
1040
408
778
Process Size :
533
440
532
412
Case 65 :
Hole size :
1004
566
797
376
431
872
216
1033
471
416
268
535
643
Process Size :
306
301
595
444
