Case 1:
Total Memory 7287
Sum of all processes 1615
According to FirstFit :
process no: 1 of size 325, uses 1 to 908.Unused memory 583
process no: 2 of size 327, uses 326 to 908.Unused memory 256
process no: 3 of size 522, uses 909 to 1636.Unused memory 206
process no: 4 of size 441, uses 2462 to 3441.Unused memory 539
According to BestFit :
process no: 1 of size 325 ,uses 4434 to 4828.Unused memory 70
process no: 2 of size 327 ,uses 1637 to 2047.Unused memory 84
process no: 3 of size 522 ,uses 6406 to 6993.Unused memory 66
process no: 4 of size 441 ,uses 4829 to 5436.Unused memory 167
4 processes out of 4 were allocated by FirstFit
4 processes out of 4 were allocated by BestFit

Case 2:
Total Memory 8529
Sum of all processes 1625
According to FirstFit :
process no: 1 of size 501, uses 1 to 803.Unused memory 302
process no: 2 of size 477, uses 1047 to 1659.Unused memory 136
process no: 3 of size 323, uses 1660 to 2169.Unused memory 187
process no: 4 of size 324, uses 2170 to 2576.Unused memory 83
According to BestFit :
process no: 1 of size 501 ,uses 2577 to 3082.Unused memory 5
process no: 2 of size 477 ,uses 1660 to 2169.Unused memory 33
process no: 3 of size 323 ,uses 2170 to 2576.Unused memory 84
process no: 4 of size 324 ,uses 7963 to 8529.Unused memory 243
4 processes out of 4 were allocated by FirstFit
4 processes out of 4 were allocated by BestFit

Case 3:
Total Memory 8261
Sum of all processes 1662
According to FirstFit :
process no: 1 of size 376, uses 1 to 1038.Unused memory 662
process no: 2 of size 490, uses 377 to 1038.Unused memory 172
process no: 3 of size 479, uses 1039 to 1825.Unused memory 308
process no: 4 of size 317, uses 1826 to 2226.Unused memory 84
According to BestFit :
process no: 1 of size 376 ,uses 1826 to 2226.Unused memory 25
process no: 2 of size 490 ,uses 5541 to 6030.Unused memory 0
process no: 3 of size 479 ,uses 1039 to 1825.Unused memory 308
process no: 4 of size 317 ,uses 7859 to 8261.Unused memory 86
4 processes out of 4 were allocated by FirstFit
4 processes out of 4 were allocated by BestFit

Case 4:
Total Memory 7724
Sum of all processes 2050
According to FirstFit :
process no: 1 of size 539, uses 1 to 843.Unused memory 304
process no: 2 of size 470, uses 844 to 1782.Unused memory 469
process no: 3 of size 540, uses 2485 to 3439.Unused memory 415
process no: 4 of size 501, uses 3869 to 4384.Unused memory 15
According to BestFit :
process no: 1 of size 539 ,uses 7005 to 7724.Unused memory 181
process no: 2 of size 470 ,uses 3869 to 4384.Unused memory 46
process no: 3 of size 540 ,uses 1 to 843.Unused memory 303
process no: 4 of size 501 ,uses 844 to 1782.Unused memory 438
4 processes out of 4 were allocated by FirstFit
4 processes out of 4 were allocated by BestFit

Case 5:
Total Memory 7164
Sum of all processes 1778
According to FirstFit :
process no: 1 of size 442, uses 1 to 641.Unused memory 199
process no: 2 of size 402, uses 642 to 1178.Unused memory 135
process no: 3 of size 515, uses 1179 to 1984.Unused memory 291
process no: 4 of size 419, uses 1985 to 2786.Unused memory 383
According to BestFit :
process no: 1 of size 442 ,uses 642 to 1178.Unused memory 95
process no: 2 of size 402 ,uses 5793 to 6384.Unused memory 190
process no: 3 of size 515 ,uses 1 to 641.Unused memory 126
process no: 4 of size 419 ,uses 6385 to 7164.Unused memory 361
4 processes out of 4 were allocated by FirstFit
4 processes out of 4 were allocated by BestFit

Case 6:
Total Memory 7750
Sum of all processes 1674
According to FirstFit :
process no: 1 of size 328, uses 1 to 475.Unused memory 147
process no: 2 of size 482, uses 476 to 1095.Unused memory 138
process no: 3 of size 483, uses 2164 to 2871.Unused memory 225
process no: 4 of size 381, uses 1096 to 1553.Unused memory 77
According to BestFit :
process no: 1 of size 328 ,uses 1554 to 1883.Unused memory 2
process no: 2 of size 482 ,uses 4634 to 5186.Unused memory 71
process no: 3 of size 483 ,uses 476 to 1095.Unused memory 137
process no: 4 of size 381 ,uses 1096 to 1553.Unused memory 77
4 processes out of 4 were allocated by FirstFit
4 processes out of 4 were allocated by BestFit

Case 7:
Total Memory 8673
Sum of all processes 1731
According to FirstFit :
process no: 1 of size 387, uses 1 to 1030.Unused memory 643
process no: 2 of size 437, uses 388 to 1030.Unused memory 206
process no: 3 of size 586, uses 1031 to 1907.Unused memory 291
process no: 4 of size 321, uses 2111 to 2985.Unused memory 554
According to BestFit :
process no: 1 of size 387 ,uses 3714 to 4279.Unused memory 179
process no: 2 of size 437 ,uses 8012 to 8673.Unused memory 225
process no: 3 of size 586 ,uses 6216 to 6894.Unused memory 93
process no: 4 of size 321 ,uses 2986 to 3713.Unused memory 407
4 processes out of 4 were allocated by FirstFit
4 processes out of 4 were allocated by BestFit

Case 8:
Total Memory 8080
Sum of all processes 1753
According to FirstFit :
process no: 1 of size 372, uses 274 to 1079.Unused memory 434
process no: 2 of size 541, uses 1080 to 1991.Unused memory 371
process no: 3 of size 315, uses 646 to 1079.Unused memory 119
process no: 4 of size 525, uses 1992 to 2881.Unused memory 365
According to BestFit :
process no: 1 of size 372 ,uses 4773 to 5150.Unused memory 6
process no: 2 of size 541 ,uses 2882 to 3596.Unused memory 174
process no: 3 of size 315 ,uses 3597 to 3981.Unused memory 70
process no: 4 of size 525 ,uses 7329 to 8080.Unused memory 227
4 processes out of 4 were allocated by FirstFit
4 processes out of 4 were allocated by BestFit

Case 9:
Total Memory 7816
Sum of all processes 1736
According to FirstFit :
process no: 1 of size 359, uses 1 to 572.Unused memory 213
process no: 2 of size 517, uses 573 to 1306.Unused memory 217
process no: 3 of size 526, uses 1307 to 2272.Unused memory 440
process no: 4 of size 334, uses 1833 to 2272.Unused memory 106
According to BestFit :
process no: 1 of size 359 ,uses 2273 to 2820.Unused memory 189
process no: 2 of size 517 ,uses 1 to 572.Unused memory 55
process no: 3 of size 526 ,uses 2821 to 3400.Unused memory 54
process no: 4 of size 334 ,uses 5801 to 6464.Unused memory 330
4 processes out of 4 were allocated by FirstFit
4 processes out of 4 were allocated by BestFit

Case 10:
Total Memory 7533
Sum of all processes 2041
According to FirstFit :
process no: 1 of size 451, uses 1 to 728.Unused memory 277
process no: 2 of size 593, uses 729 to 1637.Unused memory 316
process no: 3 of size 595, uses 2552 to 3219.Unused memory 73
process no: 4 of size 402, uses 1638 to 2093.Unused memory 54
According to BestFit :
process no: 1 of size 451 ,uses 1638 to 2093.Unused memory 5
process no: 2 of size 593 ,uses 2552 to 3219.Unused memory 75
process no: 3 of size 595 ,uses 5439 to 6110.Unused memory 77
process no: 4 of size 402 ,uses 3220 to 3621.Unused memory 0
4 processes out of 4 were allocated by FirstFit
4 processes out of 4 were allocated by BestFit

Case 11:
Total Memory 6443
Sum of all processes 1850
According to FirstFit :
process no: 1 of size 399, uses 1 to 848.Unused memory 449
process no: 2 of size 430, uses 400 to 848.Unused memory 19
process no: 3 of size 437, uses 1678 to 2589.Unused memory 475
process no: 4 of size 584, uses 2590 to 3554.Unused memory 381
According to BestFit :
process no: 1 of size 399 ,uses 3897 to 4300.Unused memory 5
process no: 2 of size 430 ,uses 1 to 848.Unused memory 418
process no: 3 of size 437 ,uses 4919 to 5777.Unused memory 422
process no: 4 of size 584 ,uses 1678 to 2589.Unused memory 328
4 processes out of 4 were allocated by FirstFit
4 processes out of 4 were allocated by BestFit

Case 12:
Total Memory 6358
Sum of all processes 1720
According to FirstFit :
process no: 1 of size 541, uses 1 to 653.Unused memory 112
process no: 2 of size 378, uses 654 to 1329.Unused memory 298
process no: 3 of size 388, uses 2218 to 2662.Unused memory 57
process no: 4 of size 413, uses 2862 to 3376.Unused memory 102
According to BestFit :
process no: 1 of size 541 ,uses 5770 to 6358.Unused memory 48
process no: 2 of size 378 ,uses 2218 to 2662.Unused memory 67
process no: 3 of size 388 ,uses 2862 to 3376.Unused memory 127
process no: 4 of size 413 ,uses 3377 to 3913.Unused memory 124
4 processes out of 4 were allocated by FirstFit
4 processes out of 4 were allocated by BestFit

Case 13:
Total Memory 8584
Sum of all processes 1876
According to FirstFit :
process no: 1 of size 394, uses 1 to 542.Unused memory 148
process no: 2 of size 529, uses 543 to 1459.Unused memory 388
process no: 3 of size 547, uses 1696 to 2292.Unused memory 50
process no: 4 of size 406, uses 2293 to 3297.Unused memory 599
According to BestFit :
process no: 1 of size 394 ,uses 8066 to 8584.Unused memory 125
process no: 2 of size 529 ,uses 1 to 542.Unused memory 13
process no: 3 of size 547 ,uses 6314 to 6873.Unused memory 13
process no: 4 of size 406 ,uses 4896 to 5482.Unused memory 181
4 processes out of 4 were allocated by FirstFit
4 processes out of 4 were allocated by BestFit

Case 14:
Total Memory 5835
Sum of all processes 2035
According to FirstFit :
process no: 1 of size 578, uses 1 to 609.Unused memory 31
process no: 2 of size 371, uses 882 to 1362.Unused memory 110
process no: 3 of size 545, uses 1769 to 2437.Unused memory 124
process no: 4 of size 541, uses 2438 to 2978.Unused memory 0
According to BestFit :
process no: 1 of size 578 ,uses 3914 to 4506.Unused memory 15
process no: 2 of size 371 ,uses 1363 to 1768.Unused memory 35
process no: 3 of size 545 ,uses 1 to 609.Unused memory 64
process no: 4 of size 541 ,uses 2438 to 2978.Unused memory 0
4 processes out of 4 were allocated by FirstFit
4 processes out of 4 were allocated by BestFit

Case 15:
Total Memory 7101
Sum of all processes 1692
According to FirstFit :
process no: 1 of size 453, uses 1 to 583.Unused memory 130
process no: 2 of size 368, uses 584 to 1284.Unused memory 333
process no: 3 of size 381, uses 1285 to 1711.Unused memory 46
process no: 4 of size 490, uses 1925 to 2485.Unused memory 71
According to BestFit :
process no: 1 of size 453 ,uses 4129 to 4617.Unused memory 36
process no: 2 of size 368 ,uses 1285 to 1711.Unused memory 59
process no: 3 of size 381 ,uses 2852 to 3293.Unused memory 61
process no: 4 of size 490 ,uses 1925 to 2485.Unused memory 71
4 processes out of 4 were allocated by FirstFit
4 processes out of 4 were allocated by BestFit

Case 16:
Total Memory 7207
Sum of all processes 1946
According to FirstFit :
process no: 1 of size 600, uses 1419 to 2117.Unused memory 99
process no: 2 of size 381, uses 631 to 1204.Unused memory 193
process no: 3 of size 427, uses 2118 to 2557.Unused memory 13
process no: 4 of size 538, uses 2558 to 3397.Unused memory 302
According to BestFit :
process no: 1 of size 600 ,uses 4279 to 4974.Unused memory 96
process no: 2 of size 381 ,uses 6818 to 7207.Unused memory 9
process no: 3 of size 427 ,uses 2118 to 2557.Unused memory 13
process no: 4 of size 538 ,uses 631 to 1204.Unused memory 36
4 processes out of 4 were allocated by FirstFit
4 processes out of 4 were allocated by BestFit

Case 17:
Total Memory 7695
Sum of all processes 1965
According to FirstFit :
process no: 1 of size 555, uses 1 to 676.Unused memory 121
process no: 2 of size 425, uses 677 to 1458.Unused memory 357
process no: 3 of size 408, uses 1459 to 2040.Unused memory 174
process no: 4 of size 577, uses 2742 to 3594.Unused memory 276
According to BestFit :
process no: 1 of size 555 ,uses 1459 to 2040.Unused memory 27
process no: 2 of size 425 ,uses 4230 to 4737.Unused memory 83
process no: 3 of size 408 ,uses 2041 to 2574.Unused memory 126
process no: 4 of size 577 ,uses 3595 to 4229.Unused memory 58
4 processes out of 4 were allocated by FirstFit
4 processes out of 4 were allocated by BestFit

Case 18:
Total Memory 6987
Sum of all processes 1593
According to FirstFit :
process no: 1 of size 356, uses 1 to 746.Unused memory 390
process no: 2 of size 430, uses 747 to 1412.Unused memory 236
process no: 3 of size 354, uses 357 to 746.Unused memory 36
process no: 4 of size 453, uses 1757 to 2501.Unused memory 292
According to BestFit :
process no: 1 of size 356 ,uses 5798 to 6183.Unused memory 30
process no: 2 of size 430 ,uses 3496 to 3946.Unused memory 21
process no: 3 of size 354 ,uses 6469 to 6987.Unused memory 165
process no: 4 of size 453 ,uses 5233 to 5797.Unused memory 112
4 processes out of 4 were allocated by FirstFit
4 processes out of 4 were allocated by BestFit

Case 19:
Total Memory 9778
Sum of all processes 1638
According to FirstFit :
process no: 1 of size 447, uses 1 to 816.Unused memory 369
process no: 2 of size 320, uses 448 to 816.Unused memory 49
process no: 3 of size 331, uses 817 to 1788.Unused memory 641
process no: 4 of size 540, uses 1148 to 1788.Unused memory 101
According to BestFit :
process no: 1 of size 447 ,uses 7529 to 8114.Unused memory 139
process no: 2 of size 320 ,uses 1789 to 2421.Unused memory 313
process no: 3 of size 331 ,uses 6858 to 7528.Unused memory 340
process no: 4 of size 540 ,uses 4164 to 4907.Unused memory 204
4 processes out of 4 were allocated by FirstFit
4 processes out of 4 were allocated by BestFit

Case 20:
Total Memory 8574
Sum of all processes 1649
According to FirstFit :
process no: 1 of size 466, uses 1 to 890.Unused memory 424
process no: 2 of size 370, uses 467 to 890.Unused memory 54
process no: 3 of size 361, uses 1101 to 2010.Unused memory 549
process no: 4 of size 452, uses 1462 to 2010.Unused memory 97
According to BestFit :
process no: 1 of size 466 ,uses 8106 to 8574.Unused memory 3
process no: 2 of size 370 ,uses 3704 to 4088.Unused memory 15
process no: 3 of size 361 ,uses 4583 to 5021.Unused memory 78
process no: 4 of size 452 ,uses 4089 to 4582.Unused memory 42
4 processes out of 4 were allocated by FirstFit
4 processes out of 4 were allocated by BestFit

Case 21:
Total Memory 9885
Sum of all processes 1911
According to FirstFit :
process no: 1 of size 417, uses 1 to 1002.Unused memory 585
process no: 2 of size 425, uses 418 to 1002.Unused memory 160
process no: 3 of size 514, uses 1003 to 1962.Unused memory 446
process no: 4 of size 555, uses 1963 to 2743.Unused memory 226
According to BestFit :
process no: 1 of size 417 ,uses 5152 to 5603.Unused memory 35
process no: 2 of size 425 ,uses 3648 to 4133.Unused memory 61
process no: 3 of size 514 ,uses 1963 to 2743.Unused memory 267
process no: 4 of size 555 ,uses 2744 to 3647.Unused memory 349
4 processes out of 4 were allocated by FirstFit
4 processes out of 4 were allocated by BestFit

Case 22:
Total Memory 8419
Sum of all processes 1846
According to FirstFit :
process no: 1 of size 366, uses 1 to 956.Unused memory 590
process no: 2 of size 473, uses 367 to 956.Unused memory 117
process no: 3 of size 548, uses 2473 to 3491.Unused memory 471
process no: 4 of size 459, uses 1947 to 2472.Unused memory 67
According to BestFit :
process no: 1 of size 366 ,uses 1250 to 1620.Unused memory 5
process no: 2 of size 473 ,uses 1947 to 2472.Unused memory 53
process no: 3 of size 548 ,uses 6716 to 7293.Unused memory 30
process no: 4 of size 459 ,uses 6133 to 6715.Unused memory 124
4 processes out of 4 were allocated by FirstFit
4 processes out of 4 were allocated by BestFit

Case 23:
Total Memory 8402
Sum of all processes 1780
According to FirstFit :
process no: 1 of size 357, uses 1 to 461.Unused memory 104
process no: 2 of size 329, uses 789 to 1255.Unused memory 138
process no: 3 of size 504, uses 1721 to 2343.Unused memory 119
process no: 4 of size 590, uses 2344 to 3046.Unused memory 113
According to BestFit :
process no: 1 of size 357 ,uses 3880 to 4238.Unused memory 2
process no: 2 of size 329 ,uses 1 to 461.Unused memory 132
process no: 3 of size 504 ,uses 5239 to 5827.Unused memory 85
process no: 4 of size 590 ,uses 1721 to 2343.Unused memory 33
4 processes out of 4 were allocated by FirstFit
4 processes out of 4 were allocated by BestFit

Case 24:
Total Memory 7940
Sum of all processes 1661
According to FirstFit :
process no: 1 of size 330, uses 1 to 855.Unused memory 525
process no: 2 of size 570, uses 1147 to 1805.Unused memory 89
process no: 3 of size 336, uses 331 to 855.Unused memory 189
process no: 4 of size 425, uses 1806 to 2353.Unused memory 123
According to BestFit :
process no: 1 of size 330 ,uses 3273 to 3614.Unused memory 12
process no: 2 of size 570 ,uses 3615 to 4206.Unused memory 22
process no: 3 of size 336 ,uses 2920 to 3272.Unused memory 17
process no: 4 of size 425 ,uses 5887 to 6408.Unused memory 97
4 processes out of 4 were allocated by FirstFit
4 processes out of 4 were allocated by BestFit

Case 25:
Total Memory 8967
Sum of all processes 1611
According to FirstFit :
process no: 1 of size 509, uses 1 to 585.Unused memory 76
process no: 2 of size 412, uses 586 to 1374.Unused memory 377
process no: 3 of size 345, uses 998 to 1374.Unused memory 32
process no: 4 of size 345, uses 1375 to 2064.Unused memory 345
According to BestFit :
process no: 1 of size 509 ,uses 1 to 585.Unused memory 76
process no: 2 of size 412 ,uses 1375 to 2064.Unused memory 278
process no: 3 of size 345 ,uses 7541 to 7946.Unused memory 61
process no: 4 of size 345 ,uses 4932 to 5646.Unused memory 370
4 processes out of 4 were allocated by FirstFit
4 processes out of 4 were allocated by BestFit

Case 26:
Total Memory 5643
Sum of all processes 1478
According to FirstFit :
process no: 1 of size 378, uses 401 to 1179.Unused memory 401
process no: 2 of size 441, uses 1428 to 1905.Unused memory 37
process no: 3 of size 327, uses 779 to 1179.Unused memory 74
process no: 4 of size 332, uses 2578 to 3288.Unused memory 379
According to BestFit :
process no: 1 of size 378 ,uses 1428 to 1905.Unused memory 100
process no: 2 of size 441 ,uses 2578 to 3288.Unused memory 270
process no: 3 of size 327 ,uses 5008 to 5368.Unused memory 34
process no: 4 of size 332 ,uses 3289 to 4049.Unused memory 429
4 processes out of 4 were allocated by FirstFit
4 processes out of 4 were allocated by BestFit

Case 27:
Total Memory 6389
Sum of all processes 1581
According to FirstFit :
process no: 1 of size 440, uses 420 to 872.Unused memory 13
process no: 2 of size 303, uses 1 to 419.Unused memory 116
process no: 3 of size 335, uses 1167 to 1552.Unused memory 51
process no: 4 of size 503, uses 1553 to 2438.Unused memory 383
According to BestFit :
process no: 1 of size 440 ,uses 420 to 872.Unused memory 13
process no: 2 of size 303 ,uses 4062 to 4369.Unused memory 5
process no: 3 of size 335 ,uses 2439 to 2794.Unused memory 21
process no: 4 of size 503 ,uses 4370 to 5090.Unused memory 218
4 processes out of 4 were allocated by FirstFit
4 processes out of 4 were allocated by BestFit

Case 28:
Total Memory 7536
Sum of all processes 1963
According to FirstFit :
process no: 1 of size 431, uses 340 to 1005.Unused memory 235
process no: 2 of size 400, uses 1206 to 2233.Unused memory 628
process no: 3 of size 566, uses 1606 to 2233.Unused memory 62
process no: 4 of size 566, uses 2234 to 3108.Unused memory 309
According to BestFit :
process no: 1 of size 431 ,uses 5410 to 5868.Unused memory 28
process no: 2 of size 400 ,uses 340 to 1005.Unused memory 266
process no: 3 of size 566 ,uses 3109 to 3882.Unused memory 208
process no: 4 of size 566 ,uses 2234 to 3108.Unused memory 309
4 processes out of 4 were allocated by FirstFit
4 processes out of 4 were allocated by BestFit

Case 29:
Total Memory 7497
Sum of all processes 1664
According to FirstFit :
process no: 1 of size 364, uses 580 to 1427.Unused memory 484
process no: 2 of size 596, uses 1637 to 2608.Unused memory 376
process no: 3 of size 352, uses 944 to 1427.Unused memory 132
process no: 4 of size 352, uses 2233 to 2608.Unused memory 24
According to BestFit :
process no: 1 of size 364 ,uses 5857 to 6361.Unused memory 141
process no: 2 of size 596 ,uses 6362 to 6970.Unused memory 13
process no: 3 of size 352 ,uses 6971 to 7497.Unused memory 175
process no: 4 of size 352 ,uses 5108 to 5856.Unused memory 397
4 processes out of 4 were allocated by FirstFit
4 processes out of 4 were allocated by BestFit

Case 30:
Total Memory 7815
Sum of all processes 1992
According to FirstFit :
process no: 1 of size 545, uses 474 to 1060.Unused memory 42
process no: 2 of size 329, uses 1 to 473.Unused memory 144
process no: 3 of size 555, uses 1061 to 1733.Unused memory 118
process no: 4 of size 563, uses 3968 to 4857.Unused memory 327
According to BestFit :
process no: 1 of size 545 ,uses 3411 to 3967.Unused memory 12
process no: 2 of size 329 ,uses 2221 to 2660.Unused memory 111
process no: 3 of size 555 ,uses 2849 to 3410.Unused memory 7
process no: 4 of size 563 ,uses 474 to 1060.Unused memory 24
4 processes out of 4 were allocated by FirstFit
4 processes out of 4 were allocated by BestFit

Case 31:
Total Memory 6491
Sum of all processes 1993
According to FirstFit :
process no: 1 of size 578, uses 1761 to 2666.Unused memory 328
process no: 2 of size 501, uses 1 to 546.Unused memory 45
process no: 3 of size 598, uses 3238 to 4072.Unused memory 237
process no: 4 of size 316, uses 806 to 1272.Unused memory 151
According to BestFit :
process no: 1 of size 578 ,uses 4240 to 4909.Unused memory 92
process no: 2 of size 501 ,uses 1 to 546.Unused memory 45
process no: 3 of size 598 ,uses 3238 to 4072.Unused memory 237
process no: 4 of size 316 ,uses 5797 to 6226.Unused memory 114
4 processes out of 4 were allocated by FirstFit
4 processes out of 4 were allocated by BestFit

Case 32:
Total Memory 7324
Sum of all processes 1746
According to FirstFit :
process no: 1 of size 368, uses 1 to 1037.Unused memory 669
process no: 2 of size 524, uses 369 to 1037.Unused memory 145
process no: 3 of size 443, uses 1038 to 1733.Unused memory 253
process no: 4 of size 411, uses 1734 to 2246.Unused memory 102
According to BestFit :
process no: 1 of size 368 ,uses 3686 to 4059.Unused memory 6
process no: 2 of size 524 ,uses 6634 to 7324.Unused memory 167
process no: 3 of size 443 ,uses 2247 to 2723.Unused memory 34
process no: 4 of size 411 ,uses 5438 to 5916.Unused memory 68
4 processes out of 4 were allocated by FirstFit
4 processes out of 4 were allocated by BestFit

Case 33:
Total Memory 8296
Sum of all processes 1711
According to FirstFit :
process no: 1 of size 534, uses 1 to 584.Unused memory 50
process no: 2 of size 344, uses 897 to 1915.Unused memory 675
process no: 3 of size 381, uses 1241 to 1915.Unused memory 294
process no: 4 of size 452, uses 1916 to 2692.Unused memory 325
According to BestFit :
process no: 1 of size 534 ,uses 1 to 584.Unused memory 50
process no: 2 of size 344 ,uses 5511 to 5946.Unused memory 92
process no: 3 of size 381 ,uses 5947 to 6430.Unused memory 103
process no: 4 of size 452 ,uses 3256 to 3928.Unused memory 221
4 processes out of 4 were allocated by FirstFit
4 processes out of 4 were allocated by BestFit

Case 34:
Total Memory 7063
Sum of all processes 1902
According to FirstFit :
process no: 1 of size 406, uses 198 to 1194.Unused memory 591
process no: 2 of size 403, uses 604 to 1194.Unused memory 188
process no: 3 of size 536, uses 2037 to 2908.Unused memory 336
process no: 4 of size 557, uses 2909 to 3921.Unused memory 456
According to BestFit :
process no: 1 of size 406 ,uses 6599 to 7063.Unused memory 59
process no: 2 of size 403 ,uses 3922 to 4493.Unused memory 169
process no: 3 of size 536 ,uses 5951 to 6598.Unused memory 112
process no: 4 of size 557 ,uses 4494 to 5281.Unused memory 231
4 processes out of 4 were allocated by FirstFit
4 processes out of 4 were allocated by BestFit

Case 35:
Total Memory 8904
Sum of all processes 1510
According to FirstFit :
process no: 1 of size 332, uses 1 to 355.Unused memory 23
process no: 2 of size 525, uses 356 to 1074.Unused memory 194
process no: 3 of size 322, uses 1075 to 1709.Unused memory 313
process no: 4 of size 331, uses 1710 to 2740.Unused memory 700
According to BestFit :
process no: 1 of size 332 ,uses 1 to 355.Unused memory 23
process no: 2 of size 525 ,uses 7590 to 8178.Unused memory 64
process no: 3 of size 322 ,uses 3608 to 3929.Unused memory 0
process no: 4 of size 331 ,uses 7073 to 7589.Unused memory 186
4 processes out of 4 were allocated by FirstFit
4 processes out of 4 were allocated by BestFit

Case 36:
Total Memory 7843
Sum of all processes 1674
According to FirstFit :
process no: 1 of size 412, uses 1 to 842.Unused memory 430
process no: 2 of size 361, uses 413 to 842.Unused memory 69
process no: 3 of size 441, uses 843 to 1685.Unused memory 402
process no: 4 of size 460, uses 1686 to 2631.Unused memory 486
According to BestFit :
process no: 1 of size 412 ,uses 3246 to 3725.Unused memory 68
process no: 2 of size 361 ,uses 2632 to 3018.Unused memory 26
process no: 3 of size 441 ,uses 6854 to 7346.Unused memory 52
process no: 4 of size 460 ,uses 3726 to 4339.Unused memory 154
4 processes out of 4 were allocated by FirstFit
4 processes out of 4 were allocated by BestFit

Case 37:
Total Memory 8165
Sum of all processes 1698
According to FirstFit :
process no: 1 of size 431, uses 1 to 583.Unused memory 152
process no: 2 of size 458, uses 748 to 1701.Unused memory 496
process no: 3 of size 312, uses 1206 to 1701.Unused memory 184
process no: 4 of size 497, uses 1702 to 2520.Unused memory 322
According to BestFit :
process no: 1 of size 431 ,uses 5233 to 5787.Unused memory 124
process no: 2 of size 458 ,uses 1 to 583.Unused memory 125
process no: 3 of size 312 ,uses 7760 to 8165.Unused memory 94
process no: 4 of size 497 ,uses 6073 to 6656.Unused memory 87
4 processes out of 4 were allocated by FirstFit
4 processes out of 4 were allocated by BestFit

Case 38:
Total Memory 8752
Sum of all processes 1982
According to FirstFit :
process no: 1 of size 375, uses 1 to 975.Unused memory 600
process no: 2 of size 569, uses 376 to 975.Unused memory 31
process no: 3 of size 481, uses 976 to 1632.Unused memory 176
process no: 4 of size 557, uses 1979 to 2934.Unused memory 399
According to BestFit :
process no: 1 of size 375 ,uses 3704 to 4102.Unused memory 24
process no: 2 of size 569 ,uses 2935 to 3506.Unused memory 3
process no: 3 of size 481 ,uses 976 to 1632.Unused memory 176
process no: 4 of size 557 ,uses 7051 to 7787.Unused memory 180
4 processes out of 4 were allocated by FirstFit
4 processes out of 4 were allocated by BestFit

Case 39:
Total Memory 9761
Sum of all processes 1637
According to FirstFit :
process no: 1 of size 368, uses 234 to 1207.Unused memory 606
process no: 2 of size 445, uses 602 to 1207.Unused memory 161
process no: 3 of size 385, uses 1208 to 2177.Unused memory 585
process no: 4 of size 439, uses 1593 to 2177.Unused memory 146
According to BestFit :
process no: 1 of size 368 ,uses 7474 to 7962.Unused memory 121
process no: 2 of size 445 ,uses 5908 to 6503.Unused memory 151
process no: 3 of size 385 ,uses 7963 to 8691.Unused memory 344
process no: 4 of size 439 ,uses 8692 to 9444.Unused memory 314
4 processes out of 4 were allocated by FirstFit
4 processes out of 4 were allocated by BestFit

Case 40:
Total Memory 7610
Sum of all processes 1691
According to FirstFit :
process no: 1 of size 498, uses 1 to 989.Unused memory 491
process no: 2 of size 302, uses 499 to 989.Unused memory 189
process no: 3 of size 344, uses 990 to 1618.Unused memory 285
process no: 4 of size 547, uses 1619 to 2285.Unused memory 120
According to BestFit :
process no: 1 of size 498 ,uses 990 to 1618.Unused memory 131
process no: 2 of size 302 ,uses 6503 to 6921.Unused memory 117
process no: 3 of size 344 ,uses 3694 to 4118.Unused memory 81
process no: 4 of size 547 ,uses 1619 to 2285.Unused memory 120
4 processes out of 4 were allocated by FirstFit
4 processes out of 4 were allocated by BestFit

Case 41:
Total Memory 9021
Sum of all processes 2052
According to FirstFit :
process no: 1 of size 561, uses 1 to 988.Unused memory 427
process no: 2 of size 493, uses 989 to 1617.Unused memory 136
process no: 3 of size 410, uses 562 to 988.Unused memory 17
process no: 4 of size 588, uses 1618 to 2233.Unused memory 28
According to BestFit :
process no: 1 of size 561 ,uses 6376 to 6944.Unused memory 8
process no: 2 of size 493 ,uses 1618 to 2233.Unused memory 123
process no: 3 of size 410 ,uses 8539 to 9021.Unused memory 73
process no: 4 of size 588 ,uses 3115 to 3735.Unused memory 33
4 processes out of 4 were allocated by FirstFit
4 processes out of 4 were allocated by BestFit

Case 42:
Total Memory 7326
Sum of all processes 1940
According to FirstFit :
process no: 1 of size 375, uses 1 to 778.Unused memory 403
process no: 2 of size 382, uses 376 to 778.Unused memory 21
process no: 3 of size 597, uses 779 to 1665.Unused memory 290
process no: 4 of size 586, uses 1666 to 2633.Unused memory 382
According to BestFit :
process no: 1 of size 375 ,uses 4462 to 4902.Unused memory 66
process no: 2 of size 382 ,uses 2885 to 3384.Unused memory 118
process no: 3 of size 597 ,uses 6676 to 7326.Unused memory 54
process no: 4 of size 586 ,uses 1 to 778.Unused memory 192
4 processes out of 4 were allocated by FirstFit
4 processes out of 4 were allocated by BestFit

Case 43:
Total Memory 8971
Sum of all processes 1786
According to FirstFit :
process no: 1 of size 444, uses 1 to 698.Unused memory 254
process no: 2 of size 306, uses 699 to 1712.Unused memory 708
process no: 3 of size 524, uses 1005 to 1712.Unused memory 184
process no: 4 of size 512, uses 1713 to 2519.Unused memory 295
According to BestFit :
process no: 1 of size 444 ,uses 5038 to 5551.Unused memory 70
process no: 2 of size 306 ,uses 5552 to 5957.Unused memory 100
process no: 3 of size 524 ,uses 6602 to 7150.Unused memory 25
process no: 4 of size 512 ,uses 5958 to 6601.Unused memory 132
4 processes out of 4 were allocated by FirstFit
4 processes out of 4 were allocated by BestFit

Case 44:
Total Memory 8541
Sum of all processes 1556
According to FirstFit :
process no: 1 of size 343, uses 173 to 1141.Unused memory 626
process no: 2 of size 352, uses 516 to 1141.Unused memory 274
process no: 3 of size 560, uses 1142 to 1972.Unused memory 271
process no: 4 of size 301, uses 1973 to 3013.Unused memory 740
According to BestFit :
process no: 1 of size 343 ,uses 5239 to 5691.Unused memory 110
process no: 2 of size 352 ,uses 5692 to 6268.Unused memory 225
process no: 3 of size 560 ,uses 3816 to 4439.Unused memory 64
process no: 4 of size 301 ,uses 3014 to 3647.Unused memory 333
4 processes out of 4 were allocated by FirstFit
4 processes out of 4 were allocated by BestFit

Case 45:
Total Memory 6758
Sum of all processes 1685
According to FirstFit :
process no: 1 of size 436, uses 1 to 578.Unused memory 142
process no: 2 of size 419, uses 876 to 1604.Unused memory 310
process no: 3 of size 426, uses 1605 to 2156.Unused memory 126
process no: 4 of size 404, uses 2157 to 2890.Unused memory 330
According to BestFit :
process no: 1 of size 436 ,uses 1605 to 2156.Unused memory 116
process no: 2 of size 419 ,uses 5551 to 6104.Unused memory 135
process no: 3 of size 426 ,uses 1 to 578.Unused memory 152
process no: 4 of size 404 ,uses 4702 to 5286.Unused memory 181
4 processes out of 4 were allocated by FirstFit
4 processes out of 4 were allocated by BestFit

Case 46:
Total Memory 9222
Sum of all processes 1883
According to FirstFit :
process no: 1 of size 408, uses 1 to 659.Unused memory 251
process no: 2 of size 592, uses 832 to 1448.Unused memory 25
process no: 3 of size 426, uses 1449 to 2489.Unused memory 615
process no: 4 of size 457, uses 1875 to 2489.Unused memory 158
According to BestFit :
process no: 1 of size 408 ,uses 4360 to 4823.Unused memory 56
process no: 2 of size 592 ,uses 832 to 1448.Unused memory 25
process no: 3 of size 426 ,uses 1 to 659.Unused memory 233
process no: 4 of size 457 ,uses 3425 to 4179.Unused memory 298
4 processes out of 4 were allocated by FirstFit
4 processes out of 4 were allocated by BestFit

Case 47:
Total Memory 8291
Sum of all processes 1819
According to FirstFit :
process no: 1 of size 354, uses 1 to 681.Unused memory 327
process no: 2 of size 561, uses 682 to 1395.Unused memory 153
process no: 3 of size 411, uses 1570 to 2234.Unused memory 254
process no: 4 of size 493, uses 2235 to 3111.Unused memory 384
According to BestFit :
process no: 1 of size 354 ,uses 3112 to 3621.Unused memory 156
process no: 2 of size 561 ,uses 4815 to 5461.Unused memory 86
process no: 3 of size 411 ,uses 1570 to 2234.Unused memory 254
process no: 4 of size 493 ,uses 1 to 681.Unused memory 188
4 processes out of 4 were allocated by FirstFit
4 processes out of 4 were allocated by BestFit

Case 48:
Total Memory 8250
Sum of all processes 1894
According to FirstFit :
process no: 1 of size 440, uses 1 to 558.Unused memory 118
process no: 2 of size 536, uses 559 to 1400.Unused memory 306
process no: 3 of size 383, uses 1621 to 2453.Unused memory 450
process no: 4 of size 535, uses 2719 to 3734.Unused memory 481
According to BestFit :
process no: 1 of size 440 ,uses 4793 to 5233.Unused memory 1
process no: 2 of size 536 ,uses 1 to 558.Unused memory 22
process no: 3 of size 383 ,uses 3735 to 4122.Unused memory 5
process no: 4 of size 535 ,uses 4123 to 4792.Unused memory 135
4 processes out of 4 were allocated by FirstFit
4 processes out of 4 were allocated by BestFit

Case 49:
Total Memory 8139
Sum of all processes 1812
According to FirstFit :
process no: 1 of size 312, uses 1 to 926.Unused memory 614
process no: 2 of size 500, uses 313 to 926.Unused memory 114
process no: 3 of size 497, uses 1221 to 2129.Unused memory 412
process no: 4 of size 503, uses 2409 to 3012.Unused memory 101
According to BestFit :
process no: 1 of size 312 ,uses 3013 to 3403.Unused memory 79
process no: 2 of size 500 ,uses 7580 to 8139.Unused memory 60
process no: 3 of size 497 ,uses 2409 to 3012.Unused memory 107
process no: 4 of size 503 ,uses 4107 to 4718.Unused memory 109
4 processes out of 4 were allocated by FirstFit
4 processes out of 4 were allocated by BestFit

Case 50:
Total Memory 9062
Sum of all processes 1589
According to FirstFit :
process no: 1 of size 351, uses 1 to 774.Unused memory 423
process no: 2 of size 426, uses 775 to 1797.Unused memory 597
process no: 3 of size 347, uses 352 to 774.Unused memory 76
process no: 4 of size 465, uses 1201 to 1797.Unused memory 132
According to BestFit :
process no: 1 of size 351 ,uses 6164 to 6621.Unused memory 107
process no: 2 of size 426 ,uses 6622 to 7143.Unused memory 96
process no: 3 of size 347 ,uses 2549 to 2895.Unused memory 0
process no: 4 of size 465 ,uses 4592 to 5204.Unused memory 148
4 processes out of 4 were allocated by FirstFit
4 processes out of 4 were allocated by BestFit

Case 51:
Total Memory 9365
Sum of all processes 1638
According to FirstFit :
process no: 1 of size 356, uses 1 to 894.Unused memory 538
process no: 2 of size 562, uses 895 to 1770.Unused memory 314
process no: 3 of size 413, uses 357 to 894.Unused memory 125
process no: 4 of size 307, uses 1457 to 1770.Unused memory 7
According to BestFit :
process no: 1 of size 356 ,uses 3693 to 4125.Unused memory 77
process no: 2 of size 562 ,uses 8730 to 9365.Unused memory 74
process no: 3 of size 413 ,uses 3232 to 3692.Unused memory 48
process no: 4 of size 307 ,uses 7227 to 7740.Unused memory 207
4 processes out of 4 were allocated by FirstFit
4 processes out of 4 were allocated by BestFit

Case 52:
Total Memory 6964
Sum of all processes 1931
According to FirstFit :
process no: 1 of size 405, uses 181 to 661.Unused memory 76
process no: 2 of size 351, uses 876 to 1512.Unused memory 286
process no: 3 of size 584, uses 1513 to 2386.Unused memory 290
process no: 4 of size 591, uses 3870 to 4835.Unused memory 375
According to BestFit :
process no: 1 of size 405 ,uses 3440 to 3869.Unused memory 25
process no: 2 of size 351 ,uses 2788 to 3141.Unused memory 3
process no: 3 of size 584 ,uses 876 to 1512.Unused memory 53
process no: 4 of size 591 ,uses 5221 to 5994.Unused memory 183
4 processes out of 4 were allocated by FirstFit
4 processes out of 4 were allocated by BestFit

Case 53:
Total Memory 8157
Sum of all processes 1966
According to FirstFit :
process no: 1 of size 484, uses 1 to 826.Unused memory 342
process no: 2 of size 567, uses 827 to 1676.Unused memory 283
process no: 3 of size 317, uses 485 to 826.Unused memory 25
process no: 4 of size 598, uses 1677 to 2316.Unused memory 42
According to BestFit :
process no: 1 of size 484 ,uses 3076 to 3572.Unused memory 13
process no: 2 of size 567 ,uses 7204 to 7808.Unused memory 38
process no: 3 of size 317 ,uses 7809 to 8157.Unused memory 32
process no: 4 of size 598 ,uses 1677 to 2316.Unused memory 42
4 processes out of 4 were allocated by FirstFit
4 processes out of 4 were allocated by BestFit

Case 54:
Total Memory 6220
Sum of all processes 1931
According to FirstFit :
process no: 1 of size 571, uses 237 to 1215.Unused memory 408
process no: 2 of size 340, uses 808 to 1215.Unused memory 68
process no: 3 of size 457, uses 1216 to 2080.Unused memory 408
process no: 4 of size 563, uses 3061 to 3751.Unused memory 128
According to BestFit :
process no: 1 of size 571 ,uses 3061 to 3751.Unused memory 120
process no: 2 of size 340 ,uses 4380 to 4728.Unused memory 9
process no: 3 of size 457 ,uses 3752 to 4212.Unused memory 4
process no: 4 of size 563 ,uses 1216 to 2080.Unused memory 302
4 processes out of 4 were allocated by FirstFit
4 processes out of 4 were allocated by BestFit

Case 55:
Total Memory 6822
Sum of all processes 1831
According to FirstFit :
process no: 1 of size 554, uses 1 to 844.Unused memory 290
process no: 2 of size 371, uses 1141 to 1866.Unused memory 355
process no: 3 of size 478, uses 2732 to 3375.Unused memory 166
process no: 4 of size 428, uses 3376 to 4078.Unused memory 275
According to BestFit :
process no: 1 of size 554 ,uses 2732 to 3375.Unused memory 90
process no: 2 of size 371 ,uses 1867 to 2285.Unused memory 48
process no: 3 of size 478 ,uses 6317 to 6822.Unused memory 28
process no: 4 of size 428 ,uses 3376 to 4078.Unused memory 275
4 processes out of 4 were allocated by FirstFit
4 processes out of 4 were allocated by BestFit

Case 56:
Total Memory 8417
Sum of all processes 1637
According to FirstFit :
process no: 1 of size 322, uses 1 to 554.Unused memory 232
process no: 2 of size 436, uses 938 to 1871.Unused memory 498
process no: 3 of size 487, uses 1374 to 1871.Unused memory 11
process no: 4 of size 392, uses 1872 to 2833.Unused memory 570
According to BestFit :
process no: 1 of size 322 ,uses 6284 to 6659.Unused memory 54
process no: 2 of size 436 ,uses 1 to 554.Unused memory 118
process no: 3 of size 487 ,uses 4185 to 4744.Unused memory 73
process no: 4 of size 392 ,uses 4745 to 5476.Unused memory 340
4 processes out of 4 were allocated by FirstFit
4 processes out of 4 were allocated by BestFit

Case 57:
Total Memory 7550
Sum of all processes 1861
According to FirstFit :
process no: 1 of size 460, uses 988 to 1945.Unused memory 498
process no: 2 of size 456, uses 1448 to 1945.Unused memory 42
process no: 3 of size 505, uses 2319 to 3032.Unused memory 209
process no: 4 of size 440, uses 3392 to 3837.Unused memory 6
According to BestFit :
process no: 1 of size 460 ,uses 2319 to 3032.Unused memory 254
process no: 2 of size 456 ,uses 5151 to 5901.Unused memory 295
process no: 3 of size 505 ,uses 6745 to 7550.Unused memory 301
process no: 4 of size 440 ,uses 3392 to 3837.Unused memory 6
4 processes out of 4 were allocated by FirstFit
4 processes out of 4 were allocated by BestFit

Case 58:
Total Memory 6702
Sum of all processes 1630
According to FirstFit :
process no: 1 of size 422, uses 780 to 1747.Unused memory 546
process no: 2 of size 509, uses 1202 to 1747.Unused memory 37
process no: 3 of size 333, uses 1 to 381.Unused memory 48
process no: 4 of size 366, uses 1748 to 2779.Unused memory 666
According to BestFit :
process no: 1 of size 422 ,uses 4099 to 4526.Unused memory 6
process no: 2 of size 509 ,uses 5680 to 6341.Unused memory 153
process no: 3 of size 333 ,uses 1 to 381.Unused memory 48
process no: 4 of size 366 ,uses 4795 to 5679.Unused memory 519
4 processes out of 4 were allocated by FirstFit
4 processes out of 4 were allocated by BestFit

Case 59:
Total Memory 7644
Sum of all processes 2010
According to FirstFit :
process no: 1 of size 546, uses 298 to 929.Unused memory 86
process no: 2 of size 582, uses 930 to 1792.Unused memory 281
process no: 3 of size 554, uses 2614 to 3642.Unused memory 475
process no: 4 of size 328, uses 1793 to 2264.Unused memory 144
According to BestFit :
process no: 1 of size 546 ,uses 298 to 929.Unused memory 86
process no: 2 of size 582 ,uses 6907 to 7644.Unused memory 156
process no: 3 of size 554 ,uses 6123 to 6906.Unused memory 230
process no: 4 of size 328 ,uses 5785 to 6122.Unused memory 10
4 processes out of 4 were allocated by FirstFit
4 processes out of 4 were allocated by BestFit

Case 60:
Total Memory 6997
Sum of all processes 2007
According to FirstFit :
process no: 1 of size 590, uses 2520 to 3567.Unused memory 458
process no: 2 of size 589, uses 4128 to 5014.Unused memory 298
process no: 3 of size 368, uses 624 to 1113.Unused memory 122
process no: 4 of size 460, uses 1114 to 1682.Unused memory 109
According to BestFit :
process no: 1 of size 590 ,uses 5811 to 6537.Unused memory 137
process no: 2 of size 589 ,uses 5015 to 5810.Unused memory 207
process no: 3 of size 368 ,uses 1683 to 2078.Unused memory 28
process no: 4 of size 460 ,uses 6538 to 6997.Unused memory 0
4 processes out of 4 were allocated by FirstFit
4 processes out of 4 were allocated by BestFit

Case 61:
Total Memory 7710
Sum of all processes 1623
According to FirstFit :
process no: 1 of size 522, uses 1 to 1033.Unused memory 511
process no: 2 of size 364, uses 523 to 1033.Unused memory 147
process no: 3 of size 381, uses 1034 to 1669.Unused memory 255
process no: 4 of size 356, uses 1975 to 2570.Unused memory 240
According to BestFit :
process no: 1 of size 522 ,uses 1975 to 2570.Unused memory 74
process no: 2 of size 364 ,uses 3664 to 4096.Unused memory 69
process no: 3 of size 381 ,uses 1034 to 1669.Unused memory 255
process no: 4 of size 356 ,uses 7022 to 7710.Unused memory 333
4 processes out of 4 were allocated by FirstFit
4 processes out of 4 were allocated by BestFit

Case 62:
Total Memory 7548
Sum of all processes 1866
According to FirstFit :
process no: 1 of size 579, uses 1 to 631.Unused memory 52
process no: 2 of size 388, uses 632 to 1320.Unused memory 301
process no: 3 of size 316, uses 1535 to 1977.Unused memory 127
process no: 4 of size 583, uses 1978 to 2803.Unused memory 243
According to BestFit :
process no: 1 of size 579 ,uses 5046 to 5641.Unused memory 17
process no: 2 of size 388 ,uses 1535 to 1977.Unused memory 55
process no: 3 of size 316 ,uses 3500 to 3952.Unused memory 137
process no: 4 of size 583 ,uses 1 to 631.Unused memory 48
4 processes out of 4 were allocated by FirstFit
4 processes out of 4 were allocated by BestFit

Case 63:
Total Memory 7830
Sum of all processes 2027
According to FirstFit :
process no: 1 of size 569, uses 1 to 901.Unused memory 332
process no: 2 of size 522, uses 1146 to 1730.Unused memory 63
process no: 3 of size 554, uses 1731 to 2640.Unused memory 356
process no: 4 of size 382, uses 2641 to 3612.Unused memory 590
According to BestFit :
process no: 1 of size 569 ,uses 1146 to 1730.Unused memory 16
process no: 2 of size 522 ,uses 6911 to 7467.Unused memory 35
process no: 3 of size 554 ,uses 3613 to 4441.Unused memory 275
process no: 4 of size 382 ,uses 4442 to 4863.Unused memory 40
4 processes out of 4 were allocated by FirstFit
4 processes out of 4 were allocated by BestFit

Case 64:
Total Memory 8242
Sum of all processes 1917
According to FirstFit :
process no: 1 of size 533, uses 1 to 605.Unused memory 72
process no: 2 of size 440, uses 943 to 1719.Unused memory 337
process no: 3 of size 532, uses 1720 to 2496.Unused memory 245
process no: 4 of size 412, uses 2497 to 2937.Unused memory 29
According to BestFit :
process no: 1 of size 533 ,uses 1 to 605.Unused memory 72
process no: 2 of size 440 ,uses 2497 to 2937.Unused memory 1
process no: 3 of size 532 ,uses 943 to 1719.Unused memory 245
process no: 4 of size 412 ,uses 1720 to 2496.Unused memory 365
4 processes out of 4 were allocated by FirstFit
4 processes out of 4 were allocated by BestFit

Case 65:
Total Memory 7628
Sum of all processes 1646
According to FirstFit :
process no: 1 of size 306, uses 1 to 1004.Unused memory 698
process no: 2 of size 301, uses 307 to 1004.Unused memory 397
process no: 3 of size 595, uses 1571 to 2367.Unused memory 202
process no: 4 of size 444, uses 1005 to 1570.Unused memory 122
According to BestFit :
process no: 1 of size 306 ,uses 2368 to 2743.Unused memory 70
process no: 2 of size 301 ,uses 5767 to 6182.Unused memory 115
process no: 3 of size 595 ,uses 6986 to 7628.Unused memory 48
process no: 4 of size 444 ,uses 5296 to 5766.Unused memory 27
4 processes out of 4 were allocated by FirstFit
4 processes out of 4 were allocated by BestFit

average memory hole size 602.9088757396449
average process size 446.91153846153844
average number of non allocated processes by FirstFit 0.0
average number of non allocated processes by BestFit 0.0
